<svg width="63" height="23" viewBox="0 0 63 23" fill="none" xmlns="http://www.w3.org/2000/svg">
<rect x="0.922429" y="0.733587" width="61.7422" height="21.3574" rx="1.35911" stroke="#3869EB" stroke-width="0.388316"/>
<g clip-path="url(#clip0_1_4117)">
<path d="M35.6012 10.6518H35.2884V10.6357H31.7936V12.189H33.9881C33.668 13.0932 32.8076 13.7422 31.7936 13.7422C30.5069 13.7422 29.4637 12.699 29.4637 11.4123C29.4637 10.1256 30.5069 9.08244 31.7936 9.08244C32.3875 9.08244 32.9278 9.3065 33.3393 9.67248L34.4376 8.57413C33.7441 7.92778 32.8164 7.52917 31.7936 7.52917C29.6491 7.52917 27.9104 9.26786 27.9104 11.4123C27.9104 13.5568 29.6491 15.2955 31.7936 15.2955C33.938 15.2955 35.6767 13.5568 35.6767 11.4123C35.6767 11.152 35.6499 10.8978 35.6012 10.6518Z" fill="#FFC107"/>
<path d="M28.3579 9.60492L29.6337 10.5406C29.9789 9.68588 30.815 9.08244 31.7933 9.08244C32.3873 9.08244 32.9276 9.3065 33.339 9.67248L34.4374 8.57413C33.7439 7.92778 32.8162 7.52917 31.7933 7.52917C30.3018 7.52917 29.0083 8.37124 28.3579 9.60492Z" fill="#FF3D00"/>
<path d="M31.7937 15.2955C32.7967 15.2955 33.7081 14.9117 34.3971 14.2874L33.1953 13.2704C32.7923 13.5769 32.2999 13.7426 31.7937 13.7422C30.7836 13.7422 29.926 13.0982 29.603 12.1995L28.3367 13.1751C28.9793 14.4327 30.2845 15.2955 31.7937 15.2955Z" fill="#4CAF50"/>
<path d="M35.6011 10.6517H35.2883V10.6356H31.7935V12.1889H33.988C33.8349 12.6192 33.559 12.9953 33.1945 13.2705L33.1951 13.2702L34.3969 14.2871C34.3119 14.3644 35.6766 13.3538 35.6766 11.4123C35.6766 11.1519 35.6498 10.8977 35.6011 10.6517Z" fill="#1976D2"/>
</g>
<defs>
<clipPath id="clip0_1_4117">
<rect width="9.31958" height="9.31958" fill="white" transform="translate(27.1335 6.75232)"/>
</clipPath>
</defs>
</svg>
